build/dump.vcd
$version Generated by VerilatedVcd $end
$timescale 1ps $end
 $scope module TOP $end
  $scope module testbench $end
   $var wire 32 o! FDATA_WIDTH [31:0] $end
   $var wire 32 p! FRM_BITS [31:0] $end
   $var wire 32 q! CLK_PERIOD [31:0] $end
   $var wire 1 j! clk $end
   $var wire 1 # rst $end
   $var wire 1 $ i_valid $end
   $var wire 1 k! i_ready $end
   $var wire 4 % sel [3:0] $end
   $var wire 3 & frm [2:0] $end
   $var wire 32 ' fina [31:0] $end
   $var wire 32 ( finb [31:0] $end
   $var wire 32 ) ina [31:0] $end
   $var wire 1 * o_valid $end
   $var wire 1 + o_ready $end
   $var wire 5 O fflags [4:0] $end
   $var wire 32 \ fresult [31:0] $end
   $var wire 32 , file_in [31:0] $end
   $var wire 32 - file_log [31:0] $end
   $var wire 32 . status [31:0] $end
   $var wire 32 / exp_res [31:0] $end
   $var wire 5 0 exp_fflags [4:0] $end
   $var wire 32 1 vector_cnt [31:0] $end
   $var wire 32 2 error_cnt [31:0] $end
   $scope module dut $end
    $var wire 32 o! FDATA_BITS [31:0] $end
    $var wire 32 r! FDATA_SIZE [31:0] $end
    $var wire 32 o! DATA_WIDTH [31:0] $end
    $var wire 32 s! FRA_BITS [31:0] $end
    $var wire 32 t! EXP_BITS [31:0] $end
    $var wire 32 o! SIG_BITS [31:0] $end
    $var wire 32 r! SIG_SIZE [31:0] $end
    $var wire 32 p! FRM_BITS [31:0] $end
    $var wire 9 u! EXP_OFFSET [8:0] $end
    $var wire 1 j! clk $end
    $var wire 1 # rst $end
    $var wire 1 $ i_valid $end
    $var wire 1 k! i_ready $end
    $var wire 4 % sel [3:0] $end
    $var wire 3 & frm [2:0] $end
    $var wire 32 ' fina [31:0] $end
    $var wire 32 ( finb [31:0] $end
    $var wire 32 ) ina [31:0] $end
    $var wire 1 * o_valid $end
    $var wire 1 + o_ready $end
    $var wire 5 O fflags [4:0] $end
    $var wire 32 \ fresult [31:0] $end
    $var wire 1 3 fadd_s $end
    $var wire 1 4 fsub_s $end
    $var wire 1 5 feq_s $end
    $var wire 1 6 flt_s $end
    $var wire 1 7 fle_s $end
    $var wire 1 8 fsgnj_s $end
    $var wire 1 9 fsgnjn_s $end
    $var wire 1 : fsgnjx_s $end
    $var wire 1 ; fcvt_w_s $end
    $var wire 1 < fcvt_wu_s $end
    $var wire 1 = fcvt_s_w $end
    $var wire 1 > fcvt_s_wu $end
    $var wire 1 v! add_fina_ready $end
    $var wire 1 v! add_finb_ready $end
    $var wire 1 ? add_fresult_valid $end
    $var wire 3 w! IDLE [2:0] $end
    $var wire 3 x! WAIT_READY [2:0] $end
    $var wire 3 y! WAIT_A_READY [2:0] $end
    $var wire 3 z! WAIT_B_READY [2:0] $end
    $var wire 3 {! WORK [2:0] $end
    $var wire 3 l! current_state [2:0] $end
    $var wire 3 m! next_state [2:0] $end
    $var wire 1 3 fa_ready $end
    $var wire 1 3 fb_ready $end
    $var wire 1 ? add_fina_valid $end
    $var wire 1 ? add_finb_valid $end
    $var wire 1 n! add_fresult_ready $end
    $var wire 1 @ sign_a $end
    $var wire 9 ] exp_a [8:0] $end
    $var wire 32 ^ sig_a [31:0] $end
    $var wire 1 _ isNAN_a $end
    $var wire 1 ` isINf_a $end
    $var wire 1 A sign_b $end
    $var wire 9 a exp_b [8:0] $end
    $var wire 32 b sig_b [31:0] $end
    $var wire 1 c isNAN_b $end
    $var wire 1 d isINf_b $end
    $var wire 1 4 add_sub_sel $end
    $var wire 1 e add_res_sign $end
    $var wire 32 f add_res_sig [31:0] $end
    $var wire 9 g add_res_exp [8:0] $end
    $var wire 1 h add_res_isNAN $end
    $var wire 1 i add_res_isINf $end
    $var wire 5 j add_res_fflags [4:0] $end
    $var wire 1 e sign_res $end
    $var wire 9 g exp_res [8:0] $end
    $var wire 32 f sig_res [31:0] $end
    $var wire 1 h isNAN_res $end
    $var wire 1 i isINf_res $end
    $var wire 32 k fpu_result [31:0] $end
    $var wire 32 P feq_fresult [31:0] $end
    $var wire 32 Q flt_fresult [31:0] $end
    $var wire 5 l flt_fflags [4:0] $end
    $var wire 32 R fle_fresult [31:0] $end
    $var wire 5 l fle_fflags [4:0] $end
    $var wire 1 @ st_sign_a $end
    $var wire 8 B st_exp_a [7:0] $end
    $var wire 23 C st_fra_a [22:0] $end
    $var wire 1 A st_sign_b $end
    $var wire 32 D fsgnj_fresult [31:0] $end
    $var wire 32 E fsgnjn_fresult [31:0] $end
    $var wire 32 S fsgnjx_fresult [31:0] $end
    $var wire 32 T fcss_fresult [31:0] $end
    $var wire 32 m fcsu_fresult [31:0] $end
    $var wire 1 n cvt_fw_nv $end
    $var wire 1 o cvt_fw_nx $end
    $var wire 5 p fcvt_w_s_fflags [4:0] $end
    $var wire 1 q fcxs_sign $end
    $var wire 8 r fcxs_exp [7:0] $end
    $var wire 24 s fcxs_sig [23:0] $end
    $var wire 32 t fcxs_fresult [31:0] $end
    $var wire 1 u cvt_wf_nx $end
    $var wire 5 v fcvt_s_w_fflags [4:0] $end
    $scope module FADD $end
     $var wire 32 p! FRM_BITS [31:0] $end
     $var wire 32 r! FLA_BITS [31:0] $end
     $var wire 32 o! SIG_BITS [31:0] $end
     $var wire 32 r! SIG_SIZE [31:0] $end
     $var wire 32 |! FRA_BITS [31:0] $end
     $var wire 32 }! EXP_BITS [31:0] $end
     $var wire 1 j! aclk $end
     $var wire 1 # areset $end
     $var wire 1 4 s_axis_sel $end
     $var wire 3 & s_axis_frm [2:0] $end
     $var wire 1 ? s_axis_a_tvalid $end
     $var wire 1 v! s_axis_a_tready $end
     $var wire 1 @ s_axis_a_sign $end
     $var wire 32 ^ s_axis_a_sig [31:0] $end
     $var wire 9 ] s_axis_a_exp [8:0] $end
     $var wire 1 _ s_axis_a_isNAN $end
     $var wire 1 ` s_axis_a_isINf $end
     $var wire 1 ? s_axis_b_tvalid $end
     $var wire 1 v! s_axis_b_tready $end
     $var wire 1 A s_axis_b_sign $end
     $var wire 32 b s_axis_b_sig [31:0] $end
     $var wire 9 a s_axis_b_exp [8:0] $end
     $var wire 1 c s_axis_b_isNAN $end
     $var wire 1 d s_axis_b_isINf $end
     $var wire 1 ? m_axis_res_tvalid $end
     $var wire 1 n! m_axis_res_tready $end
     $var wire 1 e m_axis_res_sign $end
     $var wire 32 f m_axis_res_sig [31:0] $end
     $var wire 9 g m_axis_res_exp [8:0] $end
     $var wire 1 h m_axis_res_isNAN $end
     $var wire 1 i m_axis_res_isINf $end
     $var wire 5 j m_axis_res_fflags [4:0] $end
     $var wire 1 @ sign_a $end
     $var wire 32 ^ sig_a [31:0] $end
     $var wire 9 ] exp_a [8:0] $end
     $var wire 1 A sign_b $end
     $var wire 32 b sig_b [31:0] $end
     $var wire 9 a exp_b [8:0] $end
     $var wire 1 4 is_sub $end
     $var wire 9 w comp_exp_a [8:0] $end
     $var wire 9 x comp_exp_b [8:0] $end
     $var wire 9 y neg_exp_b [8:0] $end
     $var wire 9 z exp_diff [8:0] $end
     $var wire 9 { neg_exp_diff [8:0] $end
     $var wire 1 | sign_exp_diff $end
     $var wire 5 } sig_amt_a [4:0] $end
     $var wire 5 ~ sig_amt_b [4:0] $end
     $var wire 64 !! full_sigShift_a [63:0] $end
     $var wire 64 #! full_sigShift_b [63:0] $end
     $var wire 1 %! sticky_a $end
     $var wire 1 &! sticky_b $end
     $var wire 1 '! sticky_shift $end
     $var wire 32 (! sigShift_a [31:0] $end
     $var wire 32 )! sigShift_b [31:0] $end
     $var wire 1 F sel_sign_b $end
     $var wire 31 G sign_a31 [30:0] $end
     $var wire 31 U neg_sig_a [30:0] $end
     $var wire 31 H sign_b31 [30:0] $end
     $var wire 31 V neg_sig_b [30:0] $end
     $var wire 32 W nsig_a [31:0] $end
     $var wire 32 X nsig_b [31:0] $end
     $var wire 32 *! sig_res [31:0] $end
     $var wire 1 +! of $end
     $var wire 6 ,! lamt [5:0] $end
     $var wire 33 -! full_sig_res [32:0] $end
     $var wire 32 /! s_sig_res [31:0] $end
     $var wire 9 0! s_exp_res [8:0] $end
     $var wire 1 e s_sign_res $end
     $var wire 1 h res_isNAN $end
     $var wire 1 i res_isINf $end
     $var wire 32 f o_sig [31:0] $end
     $var wire 9 g o_exp [8:0] $end
     $var wire 1 e o_sign $end
     $var wire 3 & frm [2:0] $end
     $var wire 5 j fflags [4:0] $end
     $scope module LDZ $end
      $var wire 32 o! DATA_BITS [31:0] $end
      $var wire 32 r! DATA_SIZE [31:0] $end
      $var wire 32 1! in [31:0] $end
      $var wire 6 ,! out [5:0] $end
      $var wire 32 ~! i [31:0] $end
      $var wire 5 2! found_index [4:0] $end
     $upscope $end
     $scope module ROUND $end
      $var wire 32 o! SIG_BITS [31:0] $end
      $var wire 32 }! EXP_BITS [31:0] $end
      $var wire 32 |! FRA_BITS [31:0] $end
      $var wire 32 /! sig [31:0] $end
      $var wire 9 0! exp [8:0] $end
      $var wire 1 e sign $end
      $var wire 1 h nv $end
      $var wire 1 !" dz $end
      $var wire 3 & frm [2:0] $end
      $var wire 5 j fflags [4:0] $end
      $var wire 32 f o_sig [31:0] $end
      $var wire 9 g o_exp [8:0] $end
      $var wire 1 e o_sign $end
      $var wire 1 3! isUnormalize $end
      $var wire 9 4! Unormalize_n [8:0] $end
      $var wire 32 5! shift_sig [31:0] $end
      $var wire 1 6! lsbBit $end
      $var wire 1 7! guardBit $end
      $var wire 1 8! roundBit $end
      $var wire 1 9! stickyBit $end
      $var wire 1 :! roundIncre $end
      $var wire 24 ;! sig_res [23:0] $end
      $var wire 1 <! sig_cout $end
      $var wire 1 =! nx $end
      $var wire 1 >! of $end
      $var wire 1 3! uf $end
     $upscope $end
    $upscope $end
    $scope module cvt_s_x $end
     $var wire 32 o! DATA_BITS [31:0] $end
     $var wire 32 r! DATA_SIZE [31:0] $end
     $var wire 32 |! SIG_BITS [31:0] $end
     $var wire 32 t! EXP_BITS [31:0] $end
     $var wire 32 "" BIAS [31:0] $end
     $var wire 1 > u_i $end
     $var wire 32 ) xdata [31:0] $end
     $var wire 3 & frm [2:0] $end
     $var wire 1 q sign $end
     $var wire 8 r exp [7:0] $end
     $var wire 24 s sig [23:0] $end
     $var wire 1 u nx $end
     $var wire 32 ) uint_data [31:0] $end
     $var wire 32 I int_data [31:0] $end
     $var wire 32 ?! data [31:0] $end
     $var wire 6 @! full_shift_amt [5:0] $end
     $var wire 5 A! shift_amt [4:0] $end
     $var wire 32 B! shift_sig [31:0] $end
     $var wire 24 C! sigres [23:0] $end
     $var wire 1 D! sigcout $end
     $var wire 1 E! lsbBit $end
     $var wire 1 F! guardBit $end
     $var wire 1 G! roundBit $end
     $var wire 1 H! stickyBit $end
     $var wire 1 I! roundIncre $end
     $scope module LDZ $end
      $var wire 32 o! DATA_BITS [31:0] $end
      $var wire 32 r! DATA_SIZE [31:0] $end
      $var wire 32 ?! in [31:0] $end
      $var wire 6 @! out [5:0] $end
      $var wire 32 ~! i [31:0] $end
      $var wire 5 J! found_index [4:0] $end
     $upscope $end
    $upscope $end
    $scope module cvt_x_s $end
     $var wire 32 o! DATA_BITS [31:0] $end
     $var wire 32 o! SIG_BITS [31:0] $end
     $var wire 32 }! EXP_BITS [31:0] $end
     $var wire 1 < u_i $end
     $var wire 1 @ sign $end
     $var wire 9 ] exp [8:0] $end
     $var wire 32 ^ sig [31:0] $end
     $var wire 32 T w_res [31:0] $end
     $var wire 32 m wu_res [31:0] $end
     $var wire 3 & frm [2:0] $end
     $var wire 1 _ isnan $end
     $var wire 1 ` isinf $end
     $var wire 1 n nv $end
     $var wire 1 o nx $end
     $var wire 32 #" RE_DATAWIDTH [31:0] $end
     $var wire 5 K! shift_amt [4:0] $end
     $var wire 64 L! shift_sig [63:0] $end
     $var wire 32 N! shift_xdata [31:0] $end
     $var wire 32 O! sigres [31:0] $end
     $var wire 1 P! lsbBit $end
     $var wire 1 Q! guardBit $end
     $var wire 1 R! roundBit $end
     $var wire 1 S! stickyBit $end
     $var wire 1 T! roundIncre $end
     $var wire 1 U! of $end
     $var wire 1 Y overflow_wu $end
     $var wire 1 Z overflow_w $end
     $var wire 31 V! neg_sigres [30:0] $end
     $var wire 32 [ comp_res [31:0] $end
     $var wire 32 J of_wres [31:0] $end
    $upscope $end
    $scope module torecFN_a $end
     $var wire 32 o! FP_BITS [31:0] $end
     $var wire 32 r! FP_LOG [31:0] $end
     $var wire 32 t! EXP_BITS [31:0] $end
     $var wire 32 s! FRA_BITS [31:0] $end
     $var wire 32 o! SIG_BITS [31:0] $end
     $var wire 32 }! RECEXP_BITS [31:0] $end
     $var wire 9 u! EXP_OFFSET [8:0] $end
     $var wire 32 ' fp [31:0] $end
     $var wire 1 @ sign $end
     $var wire 9 ] exp [8:0] $end
     $var wire 32 ^ sig [31:0] $end
     $var wire 1 _ isNAN $end
     $var wire 1 ` isINf $end
     $var wire 1 @ sign_st $end
     $var wire 8 B exp_st [7:0] $end
     $var wire 23 C fra_st [22:0] $end
     $var wire 1 W! isZero $end
     $var wire 1 X! isUnormalize $end
     $var wire 1 Y! isNormalize $end
     $var wire 6 Z! pos [5:0] $end
     $var wire 5 [! n [4:0] $end
     $var wire 5 \! shift_amt [4:0] $end
     $scope module LZD $end
      $var wire 32 o! DATA_BITS [31:0] $end
      $var wire 32 r! DATA_SIZE [31:0] $end
      $var wire 32 K in [31:0] $end
      $var wire 6 Z! out [5:0] $end
      $var wire 32 ~! i [31:0] $end
      $var wire 5 ]! found_index [4:0] $end
     $upscope $end
    $upscope $end
    $scope module torecFN_b $end
     $var wire 32 o! FP_BITS [31:0] $end
     $var wire 32 r! FP_LOG [31:0] $end
     $var wire 32 t! EXP_BITS [31:0] $end
     $var wire 32 s! FRA_BITS [31:0] $end
     $var wire 32 o! SIG_BITS [31:0] $end
     $var wire 32 }! RECEXP_BITS [31:0] $end
     $var wire 9 u! EXP_OFFSET [8:0] $end
     $var wire 32 ( fp [31:0] $end
     $var wire 1 A sign $end
     $var wire 9 a exp [8:0] $end
     $var wire 32 b sig [31:0] $end
     $var wire 1 c isNAN $end
     $var wire 1 d isINf $end
     $var wire 1 A sign_st $end
     $var wire 8 L exp_st [7:0] $end
     $var wire 23 M fra_st [22:0] $end
     $var wire 1 ^! isZero $end
     $var wire 1 _! isUnormalize $end
     $var wire 1 `! isNormalize $end
     $var wire 6 a! pos [5:0] $end
     $var wire 5 b! n [4:0] $end
     $var wire 5 c! shift_amt [4:0] $end
     $scope module LZD $end
      $var wire 32 o! DATA_BITS [31:0] $end
      $var wire 32 r! DATA_SIZE [31:0] $end
      $var wire 32 N in [31:0] $end
      $var wire 6 a! out [5:0] $end
      $var wire 32 ~! i [31:0] $end
      $var wire 5 d! found_index [4:0] $end
     $upscope $end
    $upscope $end
    $scope module tostdFN $end
     $var wire 32 o! FP_BITS [31:0] $end
     $var wire 32 t! EXP_BITS [31:0] $end
     $var wire 32 s! FRA_BITS [31:0] $end
     $var wire 32 o! SIG_BITS [31:0] $end
     $var wire 32 }! RECEXP_BITS [31:0] $end
     $var wire 9 u! EXP_OFFSET [8:0] $end
     $var wire 1 e sign $end
     $var wire 9 g exp [8:0] $end
     $var wire 32 f sig [31:0] $end
     $var wire 1 h isNAN $end
     $var wire 1 i isINf $end
     $var wire 32 k fp [31:0] $end
     $var wire 8 e! exp_st [7:0] $end
     $var wire 23 f! fra_st [22:0] $end
     $var wire 1 g! isZero $end
     $var wire 1 h! isNormalize $end
     $var wire 1 i! isUnormalize $end
    $upscope $end
   $upscope $end
  $upscope $end
 $upscope $end
$enddefinitions $end


#1
1#
0$
b0000 %
b000 &
b00000000000000000000000000000000 '
b00000000000000000000000000000000 (
b00000000000000000000000000000000 )
0*
1+
b10000000000000000000000000101100 ,
b10000000000000000000000000101011 -
b00000000000000000000000000000000 .
b00000000000000000000000000000000 /
b00000 0
b00000000000000000000000000000000 1
b00000000000000000000000000000000 2
13
04
05
06
07
08
09
0:
0;
0<
0=
0>
0?
0@
0A
b00000000 B
b00000000000000000000000 C
b00000000000000000000000000000000 D
b10000000000000000000000000000000 E
0F
b0000000000000000000000000000000 G
b0000000000000000000000000000000 H
b00000000000000000000000000000000 I
b01111111111111111111111111111111 J
b00000000000000000000000000000000 K
b00000000 L
b00000000000000000000000 M
b00000000000000000000000000000000 N
b00000 O
b00000000000000000000000000000001 P
b00000000000000000000000000000000 Q
b00000000000000000000000000000001 R
b00000000000000000000000000000000 S
b00000000000000000000000000000000 T
b0000000000000000000000000000000 U
b1000000000000000000000000000000 V
b00000000000000000000000000000000 W
b01000000000000000000000000000000 X
0Y
0Z
b00000000000000000000000000000000 [
b00000000000000000000000000000000 \
b000111111 ]
b10000000000000000000000000000000 ^
0_
0`
b000111111 a
b10000000000000000000000000000000 b
0c
0d
0e
b00000000000000000000000000000000 f
b000011111 g
0h
0i
b00000 j
b00000000000000000000000000000000 k
b00000 l
b10000000000000000000000000000000 m
0n
0o
b00000 p
0q
b10011110 r
b000000000000000000000000 s
b01001111000000000000000000000000 t
0u
b00000 v
b100111111 w
b100111111 x
b011000001 y
b000000000 z
b000000000 {
0|
b00001 }
b00001 ~
b1000000000000000000000000000000000000000000000000000000000000000 !!
b0100000000000000000000000000000000000000000000000000000000000000 #!
0%!
0&!
0'!
b10000000000000000000000000000000 (!
b01000000000000000000000000000000 )!
b01000000000000000000000000000000 *!
1+!
b100000 ,!
b000000000000000000000000000000000 -!
b00000000000000000000000000000000 /!
b000011111 0!
b10000000000000000000000000000000 1!
b00000 2!
03!
b001100010 4!
b00000000000000000000000000000000 5!
06!
07!
08!
09!
0:!
b000000000000000000000000 ;!
0<!
0=!
0>!
b00000000000000000000000000000000 ?!
b100000 @!
b00000 A!
b00000000000000000000000000000000 B!
b000000000000000000000000 C!
0D!
0E!
0F!
0G!
0H!
0I!
b00000 J!
b00000 K!
b1000000000000000000000000000000000000000000000000000000000000000 L!
b10000000000000000000000000000000 N!
b10000000000000000000000000000000 O!
0P!
0Q!
0R!
0S!
0T!
0U!
b0000000000000000000000000000000 V!
1W!
0X!
0Y!
b100000 Z!
b00001 [!
b00000 \!
b00000 ]!
1^!
0_!
0`!
b100000 a!
b00001 b!
b00000 c!
b00000 d!
b00000000 e!
b00000000000000000000000 f!
1g!
0h!
0i!
0j!
0k!
b000 l!
b000 m!
0n!
b00000000000000000000000000100000 o!
b00000000000000000000000000000011 p!
b00000000000000000000000000001010 q!
b00000000000000000000000000000101 r!
b00000000000000000000000000010111 s!
b00000000000000000000000000001000 t!
b100000001 u!
1v!
b000 w!
b100 x!
b101 y!
b110 z!
b011 {!
b00000000000000000000000000011000 |!
b00000000000000000000000000001001 }!
b00000000000000000000000000100000 ~!
0!"
b00000000000000000000000001111111 ""
b00000000000000000000000100100000 #"
#5001
1j!
#10001
0j!
#15001
1j!
#20001
0j!
#25001
1j!
#30001
0j!
#35001
1j!
#40001
0j!
#45001
1j!
#50001
0#
0j!
#55001
1j!
#60001
0j!
#65001
1j!
#70001
1$
b10000110100000111111011111111111 '
b11000000011111110011111111111111 (
1*
b00000000000000000000000000000100 .
b11000000011111110011111111111111 /
b00001 0
b00000000000000000000000000000001 1
1?
1@
1A
b00001101 B
b00000111111011111111111 C
b10000110100000111111011111111111 D
b00000110100000111111011111111111 E
1F
b1111111111111111111111111111111 G
b1111111111111111111111111111111 H
b10000000000000000000000000000000 J
b00000111111011111111111000000000 K
b10000000 L
b11111110011111111111111 M
b11111110011111111111111000000000 N
b00000000000000000000000000000000 P
b00000000000000000000000000000000 R
b00000110100000111111011111111111 S
b11111111111111111011111000000100 T
b1111100000010000000000011111111 U
b0000000110000000000000011111111 V
b11111100000010000000000100000000 W
b10000000110000000000000100000000 X
1Y
b11111111111111111011111000000100 [
b00110000000000000000000000000000 \
b100001110 ]
b10000011111101111111111100000000 ^
b110000001 a
b11111111001111111111111100000000 b
b101100001 g
b00110000000000000000000000000000 k
b00000000000000000100000111111100 m
1o
b00001 p
b000001110 w
b010000001 x
b101111111 y
b110001101 z
b001110011 {
1|
b00000 }
b00000 ~
b1000001111110111111111110000000000000000000000000000000000000000 !!
b1111111100111111111111110000000000000000000000000000000000000000 #!
b10000011111101111111111100000000 (!
b11111111001111111111111100000000 )!
b01111100110010000000001000000000 *!
b101100001 0!
b11111001100100000000010000000000 1!
b100100000 4!
b10001 K!
b0000000000000000010000011111101111111111100000000000000000000000 L!
b00000000000000000100000111111011 N!
b00000000000000000100000111111100 O!
1P!
1Q!
1R!
1S!
1T!
b1111111111111111011111000000100 V!
0W!
1Y!
b000101 Z!
b00110 [!
b00101 \!
b00101 ]!
0^!
1`!
b01100000 e!
0g!
1h!
0j!
b011 m!
#75001
1j!
b011 l!
b000 m!
1n!
#80001
0j!
#85001
1j!
b000 l!
b011 m!
0n!
#90001
0j!
#95001
1j!
b011 l!
b000 m!
1n!
#100001
0j!
#105001
1j!
b000 l!
b011 m!
0n!
#110001
0j!
#115001
1j!
b011 l!
b000 m!
1n!
#120001
0j!
#125001
1j!
b000 l!
b011 m!
0n!
#130001
0j!
#135001
1j!
b011 l!
b000 m!
1n!
#140001
0j!
#145001
1j!
b000 l!
b011 m!
0n!
#150001
0j!
#155001
1j!
b011 l!
b000 m!
1n!
#160001
0j!
#165001
1j!
b000 l!
b011 m!
0n!
#170001
0j!
#175001
1j!
b011 l!
b000 m!
1n!
#180001
0j!
#185001
1j!
b000 l!
b011 m!
0n!
#190001
0j!
#195001
1j!
b011 l!
b000 m!
1n!
#200001
0j!
#205001
1j!
b000 l!
b011 m!
0n!
#210001
0j!
#215001
1j!
b011 l!
b000 m!
1n!
#220001
0j!
#225001
1j!
b000 l!
b011 m!
0n!
#230001
0j!
#235001
1j!
b011 l!
b000 m!
1n!
#240001
0j!
#245001
1j!
b000 l!
b011 m!
0n!
#250001
0j!
#255001
1j!
b011 l!
b000 m!
1n!
#260001
0j!
#265001
1j!
b000 l!
b011 m!
0n!
#270001
0j!
#275001
1j!
b011 l!
b000 m!
1n!
#280001
0j!
#285001
1j!
b000 l!
b011 m!
0n!
#290001
0j!
#295001
1j!
b011 l!
b000 m!
1n!
#300001
0j!
#305001
1j!
b000 l!
b011 m!
0n!
#310001
0j!
#315001
1j!
b011 l!
b000 m!
1n!
#320001
0j!
#325001
1j!
b000 l!
b011 m!
0n!
#330001
0j!
#335001
1j!
b011 l!
b000 m!
1n!
#340001
0j!
#345001
1j!
b000 l!
b011 m!
0n!
#350001
0j!
#355001
1j!
b011 l!
b000 m!
1n!
#360001
0j!
#365001
1j!
b000 l!
b011 m!
0n!
#370001
0j!
#375001
1j!
b011 l!
b000 m!
1n!
#380001
0j!
#385001
1j!
b000 l!
b011 m!
0n!
#390001
0j!
#395001
1j!
b011 l!
b000 m!
1n!
#400001
0j!
#405001
1j!
b000 l!
b011 m!
0n!
#410001
0j!
#415001
1j!
b011 l!
b000 m!
1n!
#420001
0j!
#425001
1j!
b000 l!
b011 m!
0n!
#430001
0j!
#435001
1j!
b011 l!
b000 m!
1n!
#440001
0j!
#445001
1j!
b000 l!
b011 m!
0n!
#450001
0j!
#455001
1j!
b011 l!
b000 m!
1n!
#460001
0j!
#465001
1j!
b000 l!
b011 m!
0n!
#470001
0j!
#475001
1j!
b011 l!
b000 m!
1n!
#480001
0j!
#485001
1j!
b000 l!
b011 m!
0n!
#490001
0j!
#495001
1j!
b011 l!
b000 m!
1n!
#500001
0j!
#505001
1j!
b000 l!
b011 m!
0n!
#510001
0j!
#515001
1j!
b011 l!
b000 m!
1n!
#520001
0j!
#525001
1j!
b000 l!
b011 m!
0n!
#530001
0j!
#535001
1j!
b011 l!
b000 m!
1n!
#540001
0j!
#545001
1j!
b000 l!
b011 m!
0n!
#550001
0j!
#555001
1j!
b011 l!
b000 m!
1n!
#560001
0j!
#565001
1j!
b000 l!
b011 m!
0n!
#570001
0j!
#575001
1j!
b011 l!
b000 m!
1n!
#580001
0j!
#585001
1j!
b000 l!
b011 m!
0n!
#590001
0j!
#595001
1j!
b011 l!
b000 m!
1n!
#600001
0j!
#605001
1j!
b000 l!
b011 m!
0n!
#610001
0j!
#615001
1j!
b011 l!
b000 m!
1n!
#620001
0j!
#625001
1j!
b000 l!
b011 m!
0n!
#630001
0j!
#635001
1j!
b011 l!
b000 m!
1n!
#640001
0j!
#645001
1j!
b000 l!
b011 m!
0n!
#650001
0j!
#655001
1j!
b011 l!
b000 m!
1n!
#660001
0j!
#665001
1j!
b000 l!
b011 m!
0n!
#670001
0j!
#675001
1j!
b011 l!
b000 m!
1n!
#680001
0j!
#685001
1j!
b000 l!
b011 m!
0n!
#690001
0j!
#695001
1j!
b011 l!
b000 m!
1n!
#700001
0j!
#705001
1j!
b000 l!
b011 m!
0n!
#710001
0j!
#715001
1j!
b011 l!
b000 m!
1n!
#720001
0j!
#725001
1j!
b000 l!
b011 m!
0n!
#730001
0j!
#735001
1j!
b011 l!
b000 m!
1n!
#740001
0j!
#745001
1j!
b000 l!
b011 m!
0n!
#750001
0j!
#755001
1j!
b011 l!
b000 m!
1n!
#760001
0j!
#765001
1j!
b000 l!
b011 m!
0n!
#770001
0j!
#775001
1j!
b011 l!
b000 m!
1n!
#780001
0j!
#785001
1j!
b000 l!
b011 m!
0n!
#790001
0j!
#795001
1j!
b011 l!
b000 m!
1n!
#800001
0j!
#805001
1j!
b000 l!
b011 m!
0n!
#810001
0j!
#815001
1j!
b011 l!
b000 m!
1n!
#820001
0j!
#825001
1j!
b000 l!
b011 m!
0n!
#830001
0j!
#835001
1j!
b011 l!
b000 m!
1n!
#840001
0j!
#845001
1j!
b000 l!
b011 m!
0n!
#850001
0j!
#855001
1j!
b011 l!
b000 m!
1n!
#860001
0j!
#865001
1j!
b000 l!
b011 m!
0n!
#870001
0j!
#875001
1j!
b011 l!
b000 m!
1n!
#880001
0j!
#885001
1j!
b000 l!
b011 m!
0n!
#890001
0j!
#895001
1j!
b011 l!
b000 m!
1n!
#900001
0j!
#905001
1j!
b000 l!
b011 m!
0n!
#910001
0j!
#915001
1j!
b011 l!
b000 m!
1n!
#920001
0j!
#925001
1j!
b000 l!
b011 m!
0n!
#930001
0j!
#935001
1j!
b011 l!
b000 m!
1n!
#940001
0j!
#945001
1j!
b000 l!
b011 m!
0n!
#950001
0j!
#955001
1j!
b011 l!
b000 m!
1n!
#960001
0j!
#965001
1j!
b000 l!
b011 m!
0n!
#970001
0j!
#975001
1j!
b011 l!
b000 m!
1n!
#980001
0j!
#985001
1j!
b000 l!
b011 m!
0n!
#990001
0j!
#995001
1j!
b011 l!
b000 m!
1n!
#1000001
0j!
#1005001
1j!
b000 l!
b011 m!
0n!
#1010001
0j!
#1015001
1j!
b011 l!
b000 m!
1n!
#1020001
0j!
#1025001
1j!
b000 l!
b011 m!
0n!
#1030001
0j!
#1035001
1j!
b011 l!
b000 m!
1n!
#1040001
0j!
#1045001
1j!
b000 l!
b011 m!
0n!
#1050001
0j!
#1055001
1j!
b011 l!
b000 m!
1n!
#1060001
0j!
#1065001
1j!
b000 l!
b011 m!
0n!
#1070001
0j!
#1075001
1j!
b011 l!
b000 m!
1n!
#1080001
0j!
#1085001
1j!
b000 l!
b011 m!
0n!
#1090001
0j!
#1095001
1j!
b011 l!
b000 m!
1n!
#1100001
0j!
#1105001
1j!
b000 l!
b011 m!
0n!
#1110001
0j!
#1115001
1j!
b011 l!
b000 m!
1n!
#1120001
0j!
#1125001
1j!
b000 l!
b011 m!
0n!
#1130001
0j!
#1135001
1j!
b011 l!
b000 m!
1n!
#1140001
0j!
#1145001
1j!
b000 l!
b011 m!
0n!
#1150001
0j!
#1155001
1j!
b011 l!
b000 m!
1n!
#1160001
0j!
#1165001
1j!
b000 l!
b011 m!
0n!
#1170001
0j!
#1175001
1j!
b011 l!
b000 m!
1n!
#1180001
0j!
#1185001
1j!
b000 l!
b011 m!
0n!
#1190001
0j!
#1195001
1j!
b011 l!
b000 m!
1n!
#1200001
0j!
#1205001
1j!
b000 l!
b011 m!
0n!
#1210001
0j!
#1215001
1j!
b011 l!
b000 m!
1n!
#1220001
0j!
#1225001
1j!
b000 l!
b011 m!
0n!
#1230001
0j!
#1235001
1j!
b011 l!
b000 m!
1n!
#1240001
0j!
#1245001
1j!
b000 l!
b011 m!
0n!
#1250001
0j!
#1255001
1j!
b011 l!
b000 m!
1n!
#1260001
0j!
#1265001
1j!
b000 l!
b011 m!
0n!
#1270001
0j!
#1275001
1j!
b011 l!
b000 m!
1n!
#1280001
0j!
#1285001
1j!
b000 l!
b011 m!
0n!
#1290001
0j!
#1295001
1j!
b011 l!
b000 m!
1n!
#1300001
0j!
#1305001
1j!
b000 l!
b011 m!
0n!
#1310001
0j!
#1315001
1j!
b011 l!
b000 m!
1n!
#1320001
0j!
#1325001
1j!
b000 l!
b011 m!
0n!
#1330001
0j!
#1335001
1j!
b011 l!
b000 m!
1n!
#1340001
0j!
#1345001
1j!
b000 l!
b011 m!
0n!
#1350001
0j!
#1355001
1j!
b011 l!
b000 m!
1n!
#1360001
0j!
#1365001
1j!
b000 l!
b011 m!
0n!
#1370001
0j!
#1375001
1j!
b011 l!
b000 m!
1n!
#1380001
0j!
#1385001
1j!
b000 l!
b011 m!
0n!
#1390001
0j!
#1395001
1j!
b011 l!
b000 m!
1n!
#1400001
0j!
#1405001
1j!
b000 l!
b011 m!
0n!
#1410001
0j!
#1415001
1j!
b011 l!
b000 m!
1n!
#1420001
0j!
#1425001
1j!
b000 l!
b011 m!
0n!
#1430001
0j!
#1435001
1j!
b011 l!
b000 m!
1n!
#1440001
0j!
#1445001
1j!
b000 l!
b011 m!
0n!
#1450001
0j!
#1455001
1j!
b011 l!
b000 m!
1n!
#1460001
0j!
#1465001
1j!
b000 l!
b011 m!
0n!
#1470001
0j!
